BME4550_Fall2018_Assignment5
…
The intercept term is taken out of the model equation. The predictions are the same without an intercept as with an intercept.

2. Use model_matrix() to explore the equations generated for the models I fit to sim3 and sim4. Why is * a good shorthand for interaction?

model_matrix(data = sim3, y ~ x1 + x2)

## # A tibble: 120 x 5
##    `(Intercept)`    x1   x2b   x2c   x2d
##            <dbl> <dbl> <dbl> <dbl> <dbl>
##  1            1.    1.    0.    0.    0.
##  2            1.    1.    0.    0.    0.
##  3            1.    1.    0.    0.    0.
##  4            1.    1.    1.    0.    0.
##  5            1.    1.    1.    0.    0.
##  6            1.    1.    1.    0.    0.
##  7            1.    1.    0.    1.    0.
##  8            1.    1.    0.    1.    0.
##  9            1.    1.    0.    1.    0.
## 10            1.    1.    0.    0.    1.
## # ... with 110 more rows

model_matrix(data = sim3, y ~ x1 * x2)

## # A tibble: 120 x 8
##    `(Intercept)`    x1   x2b   x2c   x2d `x1:x2b` `x1:x2c` `x1:x2d`
##            <dbl> <dbl> <dbl> <dbl> <dbl>    <dbl>    <dbl>    <dbl>
##  1            1.    1.    0.    0.    0.       0.       0.       0.
##  2            1.    1.    0.    0.    0.       0.       0.       0.
##  3            1.    1.    0.    0.    0.       0.       0.       0.
##  4            1.    1.    1.    0.    0.       1.       0.       0.
##  5            1.    1.    1.    0.    0.       1.       0.       0.
##  6            1.    1.    1.    0.    0.       1.       0.       0.
##  7            1.    1.    0.    1.    0.       0.       1.       0.
##  8            1.    1.    0.    1.    0.       0.       1.       0.
##  9            1.    1.    0.    1.    0.       0.       1.       0.
## 10            1.    1.    0.    0.    1.       0.       0.       1.
## # ... with 110 more rows

model_matrix(data = sim4, y ~ x1 + x2)

## # A tibble: 300 x 3
##    `(Intercept)`    x1     x2
##            <dbl> <dbl>  <dbl>
##  1            1.   -1. -1.00 
##  2            1.   -1. -1.00 
##  3            1.   -1. -1.00 
##  4            1.   -1. -0.778
##  5            1.   -1. -0.778
##  6            1.   -1. -0.778
##  7            1.   -1. -0.556
##  8            1.   -1. -0.556
##  9            1.   -1. -0.556
## 10            1.   -1. -0.333
## # ... with 290 more rows

model_matrix(data = sim4, y ~ x1 * x2)

## # A tibble: 300 x 4
##    `(Intercept)`    x1     x2 `x1:x2`
##            <dbl> <dbl>  <dbl>   <dbl>
##  1            1.   -1. -1.00    1.00 
##  2            1.   -1. -1.00    1.00 
##  3            1.   -1. -1.00    1.00 
##  4            1.   -1. -0.778   0.778
##  5            1.   -1. -0.778   0.778
##  6            1.   -1. -0.778   0.778
##  7            1.   -1. -0.556   0.556
##  8            1.   -1. -0.556   0.556
##  9            1.   -1. -0.556   0.556
## 10            1.   -1. -0.333   0.333
## # ... with 290 more rows
…
3. Using the basic principles, convert the formulas in the following two models into functions. (Hint: start by converting the categorical variable into 0-1 variables.)

mod1 <- lm(y ~ x1 + x2, data = sim3)
mod2 <- lm(y ~ x1 * x2, data = sim3)

model_matrix_mod1 <- function(.data) {
  mutate(.data,
         `x2b` = as.numeric(x2 == "b"),
         `x2c` = as.numeric(x2 == "c"),
         `x2d` = as.numeric(x2 == "d")) %>%
    select(x1, x2b, x2c, x2d)
}
model_matrix_mod1(sim3)

## # A tibble: 120 x 4
##       x1   x2b   x2c   x2d
##    <int> <dbl> <dbl> <dbl>
##  1     1    0.    0.    0.
##  2     1    0.    0.    0.
##  3     1    0.    0.    0.
##  4     1    1.    0.    0.
##  5     1    1.    0.    0.
##  6     1    1.    0.    0.
##  7     1    0.    1.    0.
##  8     1    0.    1.    0.
##  9     1    0.    1.    0.
## 10     1    0.    0.    1.
## # ... with 110 more rows

model_matrix_mod2 <- function(.data) {
  mutate(.data, 
         `x2b` = as.numeric(x2 == "b"),
         `x2c` = as.numeric(x2 == "c"),
         `x2d` = as.numeric(x2 == "d"),
         `x1:x2b` = x1 * x2b,
         `x1:x2c` = x1 * x2c,
         `x1:x2d` = x1 * x2d) %>%
    select(x1, x2b, x2c, x2d, `x1:x2b`, `x1:x2c`, `x1:x2d`)
}
model_matrix_mod2(sim3)

## # A tibble: 120 x 7
##       x1   x2b   x2c   x2d `x1:x2b` `x1:x2c` `x1:x2d`
##    <int> <dbl> <dbl> <dbl>    <dbl>    <dbl>    <dbl>
##  1     1    0.    0.    0.       0.       0.       0.
##  2     1    0.    0.    0.       0.       0.       0.
##  3     1    0.    0.    0.       0.       0.       0.
##  4     1    1.    0.    0.       1.       0.       0.
##  5     1    1.    0.    0.       1.       0.       0.
##  6     1    1.    0.    0.       1.       0.       0.
##  7     1    0.    1.    0.       0.       1.       0.
##  8     1    0.    1.    0.       0.       1.       0.
##  9     1    0.    1.    0.       0.       1.       0.
## 10     1    0.    0.    1.       0.       0.       1.
## # ... with 110 more rows
…
quad <- gapminder %>%
  mutate(year = year - mean(year)) %>%
  group_by(country)%>%
  nest()%>%
  mutate(model = purrr::map(data,modquad))

quad <- quad %>%
  mutate(resids = map2(data, model, add_residuals))

unnest(quad,resids)

## # A tibble: 1,704 x 7
##    country     continent   year lifeExp      pop gdpPercap  resid
##    <fct>       <fct>      <dbl>   <dbl>    <int>     <dbl>  <dbl>
##  1 Afghanistan Asia      -27.5     28.8  8425333      779.  0.622
##  2 Afghanistan Asia      -22.5     30.3  9240934      821. -0.166
##  3 Afghanistan Asia      -17.5     32.0 10267083      853. -0.632
##  4 Afghanistan Asia      -12.5     34.0 11537966      836. -0.552
##  5 Afghanistan Asia       -7.50    36.1 13079460      740. -0.237
##  6 Afghanistan Asia       -2.50    38.4 14880372      786.  0.547
##  7 Afghanistan Asia        2.50    39.9 12881816      978.  0.587
##  8 Afghanistan Asia        7.50    40.8 13867957      852.  0.367
##  9 Afghanistan Asia       12.5     41.7 16317921      649.  0.219
## 10 Afghanistan Asia       17.5     41.8 22227415      635. -0.503
## # ... with 1,694 more rows
…
quad %>% 
  mutate(glance = map(model, broom::glance)) %>%
  unnest(glance, .drop = TRUE) %>%
  arrange(r.squared)

## # A tibble: 142 x 12
##    country    r.squared adj.r.squared sigma statistic p.value    df logLik
##    <fct>          <dbl>         <dbl> <dbl>     <dbl>   <dbl> <int>  <dbl>
##  1 Rwanda        0.0174        -0.201  6.91    0.0795 0.924       3  -38.5
##  2 Liberia       0.613          0.527  1.66    7.12   0.0140      3  -21.4
##  3 Uganda        0.640          0.561  2.48    8.02   0.0100      3  -26.2
##  4 Cambodia      0.682          0.611  5.57    9.65   0.00576     3  -35.9
##  5 Botswana      0.694          0.626  3.63   10.2    0.00485     3  -30.8
##  6 Lesotho       0.704          0.638  3.56   10.7    0.00420     3  -30.5
##  7 Zimbabwe      0.711          0.647  4.20   11.1    0.00375     3  -32.5
##  8 Zambia        0.729          0.668  2.57   12.1    0.00283     3  -26.6
##  9 Congo, De    0.730          0.669  1.65   12.1    0.00278     3  -21.3
## 10 Swaziland     0.731          0.671  3.76   12.2    0.00271     3  -31.2
## # ... with 132 more rows, and 4 more variables: AIC <dbl>, BIC <dbl>,
## #   deviance <dbl>, df.residual <int>
…
